{
    "$schema": "https://schema.management.azure.com/schemas/2015-01-01/deploymentParameters.json#",
    "contentVersion": "1.0.0.0",
    "parameters": {
        "virtualNetworks_azure_mgmt_vnet_name": {
            "value": null
        },
        "publicIPAddresses_vpn_gateway_pip_name": {
            "value": null
        },
        "networkSecurityGroups_ops_subnet_nsg_name": {
            "value": null
        },
        "applicationGateways_azure_app_gateway_name": {
            "value": null
        },
        "networkSecurityGroups_mgmt_subnet_nsg_name": {
            "value": null
        },
        "virtualNetworks_azure_operational_vnet_name": {
            "value": null
        },
        "localNetworkGateways_azure_hybrid_vpn_lgw_name": {
            "value": null
        },
        "publicIPAddresses_application_gateway_pip_name": {
            "value": null
        },
        "virtualNetworkGateways_operational_vpn_vgw_name": {
            "value": null
        },
        "subnets_web_name": {
            "value": null
        },
        "subnets_biz_name": {
            "value": null
        },
        "subnets_mgmt_subnet_name": {
            "value": null
        },
        "subnets_data_name": {
            "value": null
        },
        "subnets_adds_name": {
            "value": null
        },
        "securityRules_RDPAllow_name": {
            "value": null
        },
        "securityRules_RDPAllow_name_1": {
            "value": null
        },
        "subnets_GatewaySubnet_name": {
            "value": null
        },
        "securityRules_OpsTrafficAllow_name": {
            "value": null
        },
        "subnets_ApplicationGatewaySubnet_name": {
            "value": null
        },
        "applicationGateways_azure_app_gateway_id": {
            "value": null
        },
        "applicationGateways_azure_app_gateway_id_1": {
            "value": null
        },
        "applicationGateways_azure_app_gateway_id_2": {
            "value": null
        },
        "applicationGateways_azure_app_gateway_id_3": {
            "value": null
        },
        "applicationGateways_azure_app_gateway_id_4": {
            "value": null
        }
    }
}